<?xml version="1.0" encoding="utf-8"?>
<!-- Generator: Adobe Illustrator 16.0.0, SVG Export Plug-In . SVG Version: 6.00 Build 0)  -->
<!DOCTYPE svg PUBLIC "-//W3C//DTD SVG 1.1//EN" "http://www.w3.org/Graphics/SVG/1.1/DTD/svg11.dtd">
<svg version="1.1" id="Layer_1" xmlns="http://www.w3.org/2000/svg" xmlns:xlink="http://www.w3.org/1999/xlink" x="0px" y="0px"
	 width="200px" height="200px" viewBox="0 0 200 200" enable-background="new 0 0 200 200" xml:space="preserve">
<g>
	<circle fill="#20353F" cx="100" cy="100" r="100"/>
	<g>
		<defs>
			<circle id="SVGID_1_" cx="100" cy="100" r="100"/>
		</defs>
		<clipPath id="SVGID_2_">
			<use xlink:href="#SVGID_1_"  overflow="visible"/>
		</clipPath>
		<g clip-path="url(#SVGID_2_)">
			<path fill="#434854" d="M61.649,70.016c2.905,2.311,6.956,3.223,12.176,3.223c-3.19-1.379-5.234-3.925-5.234-7.851
				c0,0,0-10.468,0-20.937s-2.617-23.553-18.319-18.32c-23.554-9.159-34.022,7.851-34.022,18.32s0,20.937,0,20.937
				c0,3.926-2.045,6.472-5.234,7.851c5.219,0,9.27-0.912,12.176-3.223c-1.079,2.684-2.909,4.616-4.325,5.84
				c5.234,0,11.368-2.658,13.086-10.469V44.451h20.937v20.937c1.717,7.811,7.851,10.469,13.085,10.469
				C64.557,74.632,62.728,72.699,61.649,70.016z"/>
			<path fill="#EDD87E" d="M55.505,78.473V65.387H29.334v13.086c-13.009,0-28.788,7.927-28.788,20.937
				c0,4.337,3.514,7.851,7.851,7.851h68.044c4.336,0,7.851-3.514,7.851-7.851C84.293,86.4,68.514,78.473,55.505,78.473z"/>
			<path fill="#EDD87E" d="M52.888,26.131H31.952c-5.782,0-10.468,4.688-10.468,10.469v13.085c0,14.453,9.374,26.171,20.937,26.171
				c11.562,0,20.936-11.718,20.936-26.171V36.6C63.356,30.818,58.668,26.131,52.888,26.131z"/>
			<path opacity="0.1" d="M55.505,73.607v-3.511c-3.586,3.597-8.13,5.76-13.085,5.76c-4.955,0-9.5-2.163-13.085-5.76v3.511
				c3.746,3.07,8.244,4.866,13.085,4.866C47.26,78.473,51.758,76.677,55.505,73.607z"/>
			<path fill="#434854" d="M50.271,26.121c-0.246-0.094-1.008-0.675-1.759-0.93c-21.417-6.934-32.249,9.096-32.249,21.371
				c1.695,0.312,3.435,0.496,5.22,0.496c9.195,0,17.366-4.329,22.636-11.041c-0.003,2.195-0.961,5.069-4.316,8.424
				c7.851-2.618,10.469-5.235,12.576-10.39c3.747,5.702,9.475,9.97,16.193,11.882C68.572,34.121,65.419,21.071,50.271,26.121z"/>
			<path fill="#3D8EB9" d="M55.505,78.473c0,5.78-5.858,10.468-13.085,10.468s-13.085-4.688-13.085-10.468
				c-13.009,0-28.788,7.927-28.788,20.937c0,4.337,3.644,7.235,7.851,9.851l34.022,12.706l34.022-12.706
				c4.688-1.563,7.851-5.514,7.851-9.851C84.293,86.4,68.514,78.473,55.505,78.473z"/>
			<g opacity="0.15">
				<path d="M42.42,88.941v18.319h2.617V88.729C44.191,88.866,43.317,88.941,42.42,88.941z"/>
				<circle cx="37.186" cy="94.176" r="2.617"/>
				<circle cx="37.186" cy="102.027" r="2.617"/>
			</g>
			<path fill="#434854" d="M50.271,26.121c-0.246-0.094-1.008-0.675-1.759-0.93c-21.417-6.934-32.249,9.096-32.249,21.371
				c1.695,0.312,3.435,0.496,5.22,0.496c9.195,0,17.366-4.329,22.636-11.041c-0.003,2.195-0.961,5.069-4.316,8.424
				c7.851-2.618,10.469-5.235,12.576-10.39c3.747,5.702,9.475,9.97,16.193,11.882C68.572,34.121,65.419,21.071,50.271,26.121z"/>
		</g>
		<g clip-path="url(#SVGID_2_)">
			<path fill="#EDD87E" d="M116.764,69.545V54.912H87.498v14.633c-14.547,0-32.193,8.866-32.193,23.413
				c0,4.85,3.93,8.781,8.78,8.781h76.091c4.851,0,8.78-3.931,8.78-8.781C148.956,78.411,131.311,69.545,116.764,69.545z"/>
			<path fill="#EDD87E" d="M113.836,11.012H90.424c-6.465,0-11.707,5.242-11.707,11.707v14.633
				c0,16.163,10.483,29.267,23.414,29.267c12.93,0,23.412-13.104,23.412-29.267V22.719
				C125.543,16.254,120.302,11.012,113.836,11.012z"/>
			<path fill="#434854" d="M107.983,8.086H96.277c-11.707,0-20.486,8.78-20.486,20.486c0,7.639,1.968,11.178,8.779,13.593V31.499
				c11.107,0,21.256-3.927,29.28-10.392c2.181,3.579,5.839,4.539,5.839,4.539v16.52c6.812-2.415,8.781-5.954,8.781-13.593
				C128.471,16.866,119.689,8.086,107.983,8.086z"/>
			<ellipse fill="#EDD87E" cx="125.544" cy="41.742" rx="2.927" ry="7.316"/>
			<ellipse fill="#EDD87E" cx="78.718" cy="41.742" rx="2.927" ry="7.316"/>
			<path opacity="0.1" d="M116.764,64.103v-3.927c-4.01,4.024-9.092,6.442-14.633,6.442c-5.542,0-10.624-2.418-14.633-6.442v3.927
				c4.189,3.432,9.22,5.442,14.633,5.442C107.543,69.545,112.573,67.535,116.764,64.103z"/>
			<path fill="#FBA026" d="M116.764,69.545c0,6.465-6.551,11.706-14.633,11.706c-8.083,0-14.633-5.241-14.633-11.706
				c-14.547,0-32.193,8.866-32.193,23.413c0,4.85,3.93,8.781,8.78,8.781l39.49,17.027l36.602-17.027c4.851,0,8.78-3.931,8.78-8.781
				C148.956,78.411,131.311,69.545,116.764,69.545z"/>
		</g>
		<g clip-path="url(#SVGID_2_)">
			<path fill="#EDD87E" d="M54.47,149.225v-15.018H24.433v15.018c-14.93,0-33.04,9.1-33.04,24.03c0,4.978,4.033,9.011,9.011,9.011
				h78.095c4.978,0,9.011-4.033,9.011-9.011C87.51,158.324,69.401,149.225,54.47,149.225z"/>
			<path fill="#EDD87E" d="M51.466,89.152H27.437c-6.635,0-12.014,5.38-12.014,12.014v15.02c0,16.586,10.759,30.036,24.029,30.036
				c13.271,0,24.03-13.45,24.03-30.036v-15.02C63.481,94.532,58.101,89.152,51.466,89.152z"/>
			<path opacity="0.1" d="M54.47,143.641v-4.031c-4.115,4.13-9.331,6.612-15.019,6.612c-5.687,0-10.903-2.482-15.019-6.612v4.031
				c4.3,3.522,9.463,5.584,15.019,5.584C45.007,149.225,50.169,147.163,54.47,143.641z"/>
			<path fill="#434854" d="M66.485,101.166c0-2.249-1.252-4.188-3.083-5.217c0.035-0.262,0.08-0.52,0.08-0.789
				c0-3.318-2.69-6.008-6.008-6.008c-1.247,0-2.402,0.382-3.362,1.029c-0.821-2.343-3.027-4.033-5.648-4.033
				c-1.804,0-3.406,0.813-4.505,2.071c-1.1-1.258-2.702-2.071-4.506-2.071s-3.406,0.813-4.505,2.071
				c-1.1-1.258-2.702-2.071-4.506-2.071c-2.622,0-4.828,1.689-5.649,4.033c-0.96-0.647-2.115-1.029-3.362-1.029
				c-3.317,0-6.007,2.69-6.007,6.008c0,0.27,0.043,0.527,0.079,0.789c-1.831,1.029-3.083,2.969-3.083,5.217
				c0,6.055,1.209,10.971,2.986,12.016c-0.097,6.881-0.311,5.695,6.025,7.943v-19.959c0,0,6.007-6.006,18.022-6.006
				s18.022,6.006,18.022,6.006v19.959c6.336-2.248,6.025-7.943,6.025-7.943S66.485,107.221,66.485,101.166z"/>
			<ellipse fill="#EACF60" cx="63.481" cy="120.69" rx="3.004" ry="7.509"/>
			<ellipse fill="#EACF60" cx="15.422" cy="120.69" rx="3.004" ry="7.509"/>
			<g>
				<path fill="#EAEAEA" d="M54.47,134.523v-0.316h-0.317C54.259,134.312,54.365,134.418,54.47,134.523z"/>
				<path fill="#EAEAEA" d="M24.75,134.207h-0.317v0.316C24.539,134.418,24.645,134.312,24.75,134.207z"/>
				<path fill="#EAEAEA" d="M60.454,149.695c-0.252,11.393-9.547,20.556-21.002,20.556c-11.455,0-20.75-9.163-21.002-20.556
					c-13.381,2.023-27.056,10.586-27.056,23.56c0,4.978,4.033,9.011,9.011,9.011l39.047,6.553l39.047-6.553
					c4.978,0,9.011-4.033,9.011-9.011C87.51,160.281,73.836,151.719,60.454,149.695z"/>
			</g>
			<g>
				<path fill="#84BF56" d="M24.433,149.225c-14.93,0-33.04,9.1-33.04,24.03c0,4.978,4.033,9.011,9.011,9.011l33.04,5.461v-27.501
					C28.144,158.372,24.433,154.15,24.433,149.225z"/>
				<path fill="#84BF56" d="M54.47,149.225c0,4.926-3.711,9.147-9.011,11.001v27.501l33.04-5.461c4.978,0,9.011-4.033,9.011-9.011
					C87.51,158.324,69.401,149.225,54.47,149.225z"/>
			</g>
			<polygon fill="#84BF56" points="24.433,143.219 18.426,149.691 33.444,167.247 33.444,155.232 			"/>
			<polygon fill="#84BF56" points="54.47,143.219 60.477,149.691 45.459,167.247 45.459,155.232 			"/>
			<path fill="#434854" d="M54.47,110.178h-9.011c-1.66,0-3.004,1.344-3.004,3.004v0.551c-0.945-0.334-1.944-0.551-3.003-0.551
				s-2.059,0.217-3.003,0.551v-0.551c0-1.66-1.343-3.004-3.004-3.004h-9.011c-1.66,0-3.003,1.344-3.003,3.004v6.007
				c0,1.66,1.343,3.004,3.003,3.004h9.011c1.661,0,3.004-1.344,3.004-3.004v-2.171c0.886-0.516,1.904-0.832,3.003-0.832
				s2.118,0.316,3.003,0.832v2.171c0,1.66,1.344,3.004,3.004,3.004h9.011c1.66,0,3.003-1.344,3.003-3.004v-6.007
				C57.474,111.521,56.13,110.178,54.47,110.178z M33.444,119.188h-9.011v-6.007h9.011V119.188z M54.47,119.188h-9.011v-6.007h9.011
				V119.188z"/>
			<polygon opacity="0.15" points="24.433,143.219 18.426,149.691 33.444,167.247 33.444,155.232 			"/>
			<polygon opacity="0.15" points="54.47,143.219 60.477,149.691 45.459,167.247 45.459,155.232 			"/>
		</g>
		<g clip-path="url(#SVGID_2_)">
			<path fill="#EDD87E" d="M178.255,89.655V75.022h-29.267v14.633c-14.547,0-32.193,8.866-32.193,23.414
				c0,4.85,3.93,8.779,8.781,8.779h76.092c4.85,0,8.779-3.93,8.779-8.779C210.447,98.521,192.803,89.655,178.255,89.655z"/>
			<path fill="#EDD87E" d="M175.328,31.123h-23.413c-6.465,0-11.706,5.242-11.706,11.707v14.633
				c0,16.162,10.482,29.266,23.412,29.266s23.413-13.104,23.413-29.266V42.829C187.034,36.364,181.793,31.123,175.328,31.123z"/>
			<path opacity="0.1" d="M178.255,84.213v-3.927c-4.01,4.024-9.092,6.442-14.634,6.442c-5.541,0-10.623-2.418-14.633-6.442v3.927
				c4.189,3.433,9.22,5.441,14.633,5.441S174.064,87.646,178.255,84.213z"/>
			<path fill="#434854" d="M189.961,42.829c0-2.192-1.221-4.082-3.004-5.084c0.035-0.254,0.077-0.505,0.077-0.769
				c0-3.232-2.621-5.853-5.853-5.853c-1.216,0-2.342,0.372-3.276,1.003c-0.8-2.283-2.949-3.929-5.504-3.929
				c-1.757,0-3.318,0.792-4.39,2.018c-1.072-1.226-2.633-2.018-4.391-2.018c-1.757,0-3.318,0.792-4.39,2.018
				c-1.071-1.226-2.633-2.018-4.39-2.018c-2.555,0-4.705,1.646-5.505,3.929c-0.935-0.631-2.06-1.003-3.275-1.003
				c-3.231,0-5.853,2.621-5.853,5.853c0,0.264,0.042,0.515,0.076,0.769c-1.783,1.003-3.004,2.893-3.004,5.084
				c0,5.899,1.178,10.689,2.91,11.707c-0.094,6.705-0.303,5.55,5.87,7.74V42.829c0,0,5.854-5.854,17.56-5.854
				c11.707,0,17.561,5.854,17.561,5.854v19.446c6.173-2.189,5.869-7.74,5.869-7.74S189.961,48.728,189.961,42.829z"/>
			<ellipse fill="#EACF60" cx="187.034" cy="61.852" rx="2.927" ry="7.317"/>
			<ellipse fill="#EACF60" cx="140.208" cy="61.852" rx="2.927" ry="7.317"/>
			<g>
				<path fill="#EAEAEA" d="M178.255,75.331v-0.309h-0.309C178.049,75.125,178.152,75.228,178.255,75.331z"/>
				<path fill="#EAEAEA" d="M149.297,75.022h-0.309v0.309C149.091,75.228,149.193,75.125,149.297,75.022z"/>
				<path fill="#EAEAEA" d="M184.085,90.112c-0.245,11.101-9.303,20.029-20.464,20.029c-11.16,0-20.217-8.929-20.463-20.029
					c-13.039,1.972-26.363,10.315-26.363,22.956c0,4.85,3.93,8.779,8.781,8.779l38.045,6.385l38.047-6.385
					c4.85,0,8.779-3.93,8.779-8.779C210.447,100.427,197.123,92.084,184.085,90.112z"/>
			</g>
			<g>
				<path fill="#9365B8" d="M148.988,89.655c-14.547,0-32.193,8.866-32.193,23.414c0,4.85,3.93,8.779,8.781,8.779l32.191,5.32
					v-26.795C152.604,98.567,148.988,94.453,148.988,89.655z"/>
				<path fill="#9365B8" d="M178.255,89.655c0,4.798-3.616,8.912-8.78,10.718v26.795l32.193-5.32c4.85,0,8.779-3.93,8.779-8.779
					C210.447,98.521,192.803,89.655,178.255,89.655z"/>
			</g>
			<polygon fill="#553982" points="148.988,83.802 143.135,90.109 157.768,107.215 157.768,95.508 			"/>
			<polygon fill="#553982" points="178.255,83.802 184.107,90.109 169.475,107.215 169.475,95.508 			"/>
			<polygon opacity="0.15" fill="#553982" points="148.988,83.802 143.135,90.109 157.768,107.215 157.768,95.508 			"/>
			<polygon opacity="0.15" fill="#553982" points="178.255,83.802 184.107,90.109 169.475,107.215 169.475,95.508 			"/>
			<path fill="#434854" d="M178.255,51.609h-8.78c-1.617,0-2.926,1.309-2.926,2.927v0.538c-0.922-0.326-1.896-0.538-2.928-0.538
				c-1.031,0-2.006,0.211-2.926,0.538v-0.538c0-1.618-1.31-2.927-2.928-2.927h-8.779c-1.617,0-2.927,1.309-2.927,2.927v5.853
				c0,1.618,1.31,2.927,2.927,2.927h8.779c1.618,0,2.928-1.309,2.928-2.927v-2.115c0.863-0.502,1.855-0.811,2.926-0.811
				c1.072,0,2.064,0.309,2.928,0.811v2.115c0,1.618,1.309,2.927,2.926,2.927h8.78c1.616,0,2.927-1.309,2.927-2.927v-5.853
				C181.182,52.917,179.871,51.609,178.255,51.609z M157.768,60.389h-8.779v-5.853h8.779V60.389z M178.255,60.389h-8.78v-5.853h8.78
				V60.389z"/>
		</g>
		<g clip-path="url(#SVGID_2_)">
			<path fill="#434854" d="M184.861,137.322c2.981,2.371,7.139,3.308,12.496,3.308c-3.273-1.416-5.372-4.028-5.372-8.058
				c0,0,0-10.744,0-21.488s-2.687-24.173-18.802-18.802c-24.174-9.4-34.918,8.058-34.918,18.802s0,21.488,0,21.488
				c0,4.029-2.099,6.642-5.373,8.058c5.357,0,9.515-0.937,12.497-3.308c-1.107,2.754-2.985,4.737-4.438,5.994
				c5.372,0,11.668-2.729,13.43-10.744v-21.488h21.488v21.488c1.763,8.016,8.059,10.744,13.43,10.744
				C187.846,142.06,185.968,140.076,184.861,137.322z"/>
			<path fill="#EDD87E" d="M178.555,146.002v-13.43h-26.859v13.43c-13.352,0-29.546,8.137-29.546,21.488
				c0,4.451,3.606,8.058,8.058,8.058h69.836c4.451,0,8.059-3.606,8.059-8.058C208.102,154.139,191.906,146.002,178.555,146.002z"/>
			<path fill="#EDD87E" d="M175.869,92.282h-21.488c-5.934,0-10.743,4.811-10.743,10.744v13.431c0,14.833,9.62,26.86,21.487,26.86
				s21.488-12.027,21.488-26.86v-13.431C186.613,97.093,181.803,92.282,175.869,92.282z"/>
			<path opacity="0.1" d="M178.555,141.008v-3.604c-3.68,3.691-8.344,5.912-13.43,5.912c-5.085,0-9.75-2.221-13.43-5.912v3.604
				c3.846,3.15,8.461,4.994,13.43,4.994S174.709,144.158,178.555,141.008z"/>
			<path fill="#434854" d="M173.184,92.271c-0.252-0.097-1.034-0.692-1.805-0.955c-21.981-7.116-33.098,9.335-33.098,21.933
				c1.74,0.32,3.525,0.51,5.356,0.51c9.437,0,17.823-4.443,23.231-11.332c-0.002,2.254-0.986,5.203-4.43,8.646
				c8.059-2.686,10.744-5.373,12.907-10.664c3.846,5.853,9.725,10.233,16.619,12.195C191.966,100.482,188.73,87.089,173.184,92.271z
				"/>
			<path fill="#EF4D4D" d="M178.555,146.002c0,5.933-6.012,10.744-13.43,10.744c-7.417,0-13.43-4.812-13.43-10.744
				c-13.352,0-29.546,8.137-29.546,21.488c0,4.451,3.606,8.058,8.058,8.058l34.918,12.015l34.918-12.015
				c4.451,0,8.059-3.606,8.059-8.058C208.102,154.139,191.906,146.002,178.555,146.002z"/>
			<g opacity="0.15">
				<path d="M165.125,156.746v18.802h2.686v-19.02C166.943,156.67,166.046,156.746,165.125,156.746z"/>
				<circle cx="159.754" cy="162.118" r="2.687"/>
				<circle cx="159.754" cy="170.176" r="2.686"/>
			</g>
			<path fill="#434854" d="M173.184,92.271c-0.252-0.097-1.034-0.692-1.805-0.955c-21.981-7.116-33.098,9.335-33.098,21.933
				c1.74,0.32,3.525,0.51,5.356,0.51c9.437,0,17.823-4.443,23.231-11.332c-0.002,2.254-0.986,5.203-4.43,8.646
				c8.059-2.686,10.744-5.373,12.907-10.664c3.846,5.853,9.725,10.233,16.619,12.195C191.966,100.482,188.73,87.089,173.184,92.271z
				"/>
		</g>
		<g clip-path="url(#SVGID_2_)">
			<path fill="#EDD87E" d="M121.76,162.308v-15.019H91.723v15.019c-14.931,0-33.04,9.099-33.04,24.03c0,4.977,4.033,9.01,9.01,9.01
				h78.096c4.978,0,9.012-4.033,9.012-9.01C154.801,171.406,136.689,162.308,121.76,162.308z"/>
			<path fill="#EDD87E" d="M118.756,102.234H94.727c-6.635,0-12.015,5.38-12.015,12.015v15.019c0,16.588,10.759,30.037,24.03,30.037
				c13.27,0,24.028-13.449,24.028-30.037v-15.019C130.771,107.614,125.391,102.234,118.756,102.234z"/>
			<path fill="#434854" d="M112.748,99.23h-12.014c-12.014,0-21.025,9.012-21.025,21.025c0,7.841,2.021,11.473,9.011,13.951V123.26
				c11.398,0,21.814-4.03,30.051-10.665c2.238,3.673,5.993,4.657,5.993,4.657v16.955c6.99-2.479,9.01-6.11,9.01-13.951
				C133.773,108.242,124.764,99.23,112.748,99.23z"/>
			<ellipse fill="#EDD87E" cx="130.771" cy="133.773" rx="3.003" ry="7.509"/>
			<ellipse fill="#EDD87E" cx="82.712" cy="133.773" rx="3.003" ry="7.509"/>
			<path opacity="0.1" d="M121.76,156.723v-4.03c-4.115,4.13-9.33,6.612-15.018,6.612c-5.689,0-10.904-2.482-15.019-6.612v4.03
				c4.3,3.522,9.462,5.585,15.019,5.585C112.297,162.308,117.459,160.245,121.76,156.723z"/>
			<path fill="#469FCC" d="M121.76,162.308c0,6.635-6.723,12.015-15.018,12.015c-8.296,0-15.019-5.38-15.019-12.015
				c-14.931,0-33.04,9.099-33.04,24.03c0,4.977,4.033,9.01,9.01,9.01l38.893,8.738l39.203-8.738c4.978,0,9.012-4.033,9.012-9.01
				C154.801,171.406,136.689,162.308,121.76,162.308z"/>
		</g>
	</g>
	<circle opacity="0.1" fill="#20353F" cx="100" cy="100" r="100"/>
</g>
</svg>
