<?xml version="1.0" encoding="utf-8"?>
<!-- Generator: Adobe Illustrator 16.0.0, SVG Export Plug-In . SVG Version: 6.00 Build 0)  -->
<!DOCTYPE svg PUBLIC "-//W3C//DTD SVG 1.1//EN" "http://www.w3.org/Graphics/SVG/1.1/DTD/svg11.dtd">
<svg version="1.1" id="Layer_1" xmlns="http://www.w3.org/2000/svg" xmlns:xlink="http://www.w3.org/1999/xlink" x="0px" y="0px"
	 width="150px" height="150px" viewBox="0 0 150 150" enable-background="new 0 0 150 150" xml:space="preserve">
<circle display="none" opacity="0.3" fill="#FFFFFF" enable-background="new    " cx="75" cy="75" r="72.5"/>
<circle fill="#FFFFFF" cx="75" cy="75" r="70"/>
<path fill="#F68F3B" d="M19.996,53.536v9.68c2.574,0,4.693-1.97,4.969-4.5h0.063c0.277,2.53,2.396,4.5,4.968,4.5
	c2.575,0,4.693-1.97,4.968-4.5h0.064c0.181,1.659,1.156,3.077,2.533,3.856c0.721,0.407,1.55,0.644,2.437,0.644
	c2.573,0,4.69-1.97,4.967-4.5h0.065c0.277,2.53,2.393,4.5,4.966,4.5c2.576,0,4.694-1.97,4.97-4.5h0.065
	c0.274,2.53,2.391,4.5,4.967,4.5c2.574,0,4.692-1.97,4.969-4.5h0.064c0.276,2.53,2.395,4.5,4.967,4.5c2.575,0,4.692-1.97,4.97-4.5
	h0.062c0.277,2.53,2.396,4.5,4.97,4.5c2.573,0,4.689-1.97,4.965-4.5h0.066c0.275,2.53,2.396,4.5,4.971,4.5
	c2.574,0,4.688-1.97,4.966-4.5h0.064c0.274,2.53,2.393,4.5,4.967,4.5c2.576,0,4.694-1.97,4.972-4.5h0.062
	c0.28,2.53,2.397,4.5,4.97,4.5c0.885,0,1.714-0.237,2.438-0.643c1.377-0.78,2.352-2.197,2.531-3.857h0.064
	c0.277,2.53,2.395,4.5,4.968,4.5s4.692-1.97,4.968-4.5h0.062c0.279,2.53,2.396,4.5,4.971,4.5v-9.68H19.996z M116.414,34.66H33.586
	L20.375,52.467h109.252L116.414,34.66z M105.004,62.488c-1.21,1.427-3.004,2.333-5.002,2.333c-1.996,0-3.793-0.906-4.999-2.333
	c-1.208,1.427-3.004,2.333-4.999,2.333c-2.003,0-3.793-0.906-5.001-2.333c-1.212,1.427-3.004,2.333-5.001,2.333
	c-2.001,0-3.794-0.906-5.001-2.333c-1.21,1.427-3.003,2.333-5.001,2.333s-3.792-0.906-5-2.333c-1.208,1.427-3.003,2.333-5,2.333
	c-1.998,0-3.792-0.906-5-2.333c-1.21,1.427-3.002,2.333-5.002,2.333c-1.998,0-3.789-0.906-4.998-2.333
	c-1.208,1.427-3.002,2.333-5,2.333c-0.862,0-1.682-0.179-2.437-0.483v50.514h74.878V64.338c-0.756,0.304-1.575,0.483-2.438,0.483
	C108.006,64.821,106.213,63.915,105.004,62.488z M76.473,103.663c-0.303,0.532-0.865,0.858-1.473,0.858
	c-0.607,0-1.167-0.328-1.476-0.859c-2.782-4.814-8.53-15.281-8.53-19.518c0-5.592,4.478-10.126,10.005-10.126
	c5.524,0,10.008,4.537,10.008,10.126C85.008,88.384,79.257,98.85,76.473,103.663z M74.999,76.312c-4.27,0-7.741,3.515-7.741,7.834
	c0,4.318,3.471,7.834,7.741,7.834c4.271,0,7.745-3.518,7.745-7.834C82.744,79.827,79.271,76.312,74.999,76.312z"/>
</svg>
