<?xml version="1.0" encoding="utf-8"?>
<!-- Generator: Adobe Illustrator 16.0.0, SVG Export Plug-In . SVG Version: 6.00 Build 0)  -->
<!DOCTYPE svg PUBLIC "-//W3C//DTD SVG 1.1//EN" "http://www.w3.org/Graphics/SVG/1.1/DTD/svg11.dtd">
<svg version="1.1" id="Layer_1" xmlns="http://www.w3.org/2000/svg" xmlns:xlink="http://www.w3.org/1999/xlink" x="0px" y="0px"
	 width="205px" height="205px" viewBox="0 0 205 205" enable-background="new 0 0 205 205" xml:space="preserve">
<path fill="#FFFFFF" d="M91.883,47.032H88.24v-0.903h3.643v-4.068H73.197v4.07h1.477v0.904h-1.477v22.175h18.687V47.032z
	 M79.193,46.129h4.524v0.903h-4.524V46.129z M82.539,64.278c-2.356,0-4.267-1.91-4.267-4.267c0-2.357,1.91-4.267,4.267-4.267
	s4.267,1.911,4.267,4.267C86.806,62.367,84.896,64.278,82.539,64.278z M162.514,148.918l-6.014-40.292l-0.3-42.409
	c-0.007-0.772-0.306-1.514-0.842-2.071l-21.459-22.369l-4.361,4.185l8.933,9.31v15.953c0,0,1.421,9.763,11.782,8.566l0.206,29.093
	c0.002,0.145,0.014,0.282,0.034,0.424l5.971,40.013c-0.13,0.6-0.494,1.924-1.344,3.207c-1.508,2.271-3.781,3.312-6.962,3.187
	c-2.303-0.091-3.951-0.736-5.05-1.976c-1.905-2.163-1.64-5.573-1.636-5.586c0.012-0.1,0.017-0.201,0.017-0.303V97.526
	c0-0.149-0.015-0.299-0.031-0.448c-1.176-7.873-6.47-10.008-9.104-10.038h-9.728V49.292c0-3.993-3.238-7.232-7.236-7.232H92.787
	v28.053H72.293v-23.08H70.15v-0.903h2.143v-4.068H49.687c-3.994,0-7.233,3.238-7.233,7.232v106.695c0,3.996,3.239,7.234,7.233,7.234
	h65.704c3.992,0,7.233-3.236,7.233-7.234V93.084h9.595c0.385,0.047,2.531,0.495,3.224,4.675v49.964
	c-0.085,1.123-0.249,6.127,3.081,9.959c2.217,2.545,5.379,3.915,9.4,4.075c0.243,0.012,0.491,0.016,0.732,0.016
	c9.771,0,13.344-7.802,13.87-12.033C162.558,149.463,162.555,149.189,162.514,148.918z M149.4,74.949c0,0-3.631-0.547-5.444-4.175
	v-7.406l2.995,0.747l2.028,2.114C149.556,67.758,149.907,70.392,149.4,74.949z M97.286,46.129h4.523v0.903h-4.523V46.129z
	 M46.523,49.292c0-0.833,0.323-1.622,0.91-2.218l0.643,0.635c-0.42,0.425-0.65,0.986-0.65,1.583v2.414h-0.903V49.292z
	 M46.523,56.229h0.903v4.523h-0.903V56.229z M46.523,65.274h0.903v4.524h-0.903V65.274z M46.523,74.319h0.903v4.523h-0.903V74.319z
	 M46.523,83.366h0.903v4.523h-0.903V83.366z M46.523,92.412h0.903v4.521h-0.903V92.412z M46.523,101.455h0.903v4.522h-0.903V101.455
	z M46.523,110.501h0.903v4.522h-0.903V110.501z M46.523,119.547h0.903v4.522h-0.903V119.547z M46.523,128.59h0.903v4.523h-0.903
	V128.59z M46.523,137.636h0.903v4.524h-0.903V137.636z M46.523,146.684h0.903v4.522h-0.903V146.684z M49.687,159.154
	c-1.746,0-3.164-1.423-3.164-3.168v-0.26h0.903v0.26c0,1.248,1.015,2.262,2.261,2.262l0.032,0.906H49.687z M52.058,46.129h4.522
	v0.903h-4.522V46.129z M58.765,159.154h-4.523v-0.906h4.523V159.154z M61.104,46.129h4.523v0.903h-4.523V46.129z M67.809,159.154
	h-4.522v-0.906h4.522V159.154z M76.855,159.154h-4.523v-0.906h4.523V159.154z M85.9,159.154h-4.523v-0.906H85.9V159.154z
	 M94.944,159.154h-4.521v-0.906h4.521V159.154z M88.401,102.869h7.758c0.75,0,1.357,0.608,1.357,1.355
	c0,0.75-0.608,1.356-1.357,1.356h-7.714c-0.014,0.238-0.017,0.471-0.04,0.714l-0.014,0.121c-0.434,2.965-2.572,7.91-11.625,10.13
	l13.748,18.027c0.756,0.991,0.567,2.41-0.425,3.168c-0.411,0.314-0.893,0.462-1.37,0.462c-0.681,0-1.354-0.306-1.799-0.89
	l-18.33-24.035l3.852-0.521c6.741-0.91,10.914-3.434,11.468-6.938c0.009-0.08,0.009-0.158,0.013-0.236H68.92
	c-0.75,0-1.356-0.608-1.356-1.356c0-0.746,0.607-1.356,1.356-1.356h14.937c-0.218-1.532-0.755-2.81-1.612-3.813
	c-1.37-1.601-3.273-2.203-4.294-2.421h-9.029c-0.75,0-1.355-0.607-1.355-1.356c0-0.749,0.606-1.356,1.355-1.356h27.24
	c0.749,0,1.356,0.607,1.356,1.356c0,0.748-0.608,1.356-1.356,1.356H86.075C87.384,98.364,88.165,100.45,88.401,102.869z
	 M103.991,159.154h-4.524v-0.906h4.524V159.154z M106.328,46.129h4.524v0.903h-4.524V46.129z M113.036,159.154h-4.524v-0.906h4.524
	V159.154z M118.556,155.99c0,0.828-0.318,1.609-0.897,2.202l-0.648-0.63c0.413-0.423,0.643-0.982,0.643-1.572v-2.43h0.903V155.99z
	 M118.556,149.037h-0.903v-4.524h0.903V149.037z M118.556,139.992h-0.903v-4.523h0.903V139.992z M118.556,130.946h-0.903v-4.523
	h0.903V130.946z M118.556,121.9h-0.903v-4.522h0.903V121.9z M118.556,112.854h-0.903v-4.522h0.903V112.854z M118.556,103.811h-0.903
	v-4.521h0.903V103.811z M118.556,94.765h-0.903v-4.523h0.903V94.765z M118.556,85.721h-0.903v-4.523h0.903V85.721z M118.556,76.675
	h-0.903v-4.523h0.903V76.675z M118.556,67.631h-0.903v-4.524h0.903V67.631z M118.556,58.585h-0.903v-4.524h0.903V58.585z
	 M118.556,49.54h-0.903v-0.246c0-1.246-1.015-2.26-2.262-2.26l-0.019-0.904h0.019c1.744,0,3.165,1.418,3.165,3.163V49.54
	L118.556,49.54z"/>
</svg>
