<?xml version="1.0" encoding="utf-8"?>
<!-- Generator: Adobe Illustrator 17.1.0, SVG Export Plug-In . SVG Version: 6.00 Build 0)  -->
<!DOCTYPE svg PUBLIC "-//W3C//DTD SVG 1.1 Basic//EN" "http://www.w3.org/Graphics/SVG/1.1/DTD/svg11-basic.dtd">
<svg version="1.1" baseProfile="basic" id="Layer_1"
	 xmlns="http://www.w3.org/2000/svg" xmlns:xlink="http://www.w3.org/1999/xlink" x="0px" y="0px" width="150px" height="150px"
	 viewBox="0 0 150 150" xml:space="preserve">
<path fill="#FFFFFF" d="M97.597,63.948H52.124c-10.012,0-18.128,8.116-18.128,18.128v27.038c0,10.012,8.116,18.127,18.128,18.127
	h45.472c10.012,0,18.127-8.116,18.127-18.127V82.075C115.724,72.063,107.608,63.948,97.597,63.948z M80.776,106.27
	c0,3.309-2.682,5.991-5.991,5.991c-3.309,0-5.991-2.682-5.991-5.991V88.142c0-3.309,2.682-5.991,5.991-5.991
	c3.309,0,5.991,2.682,5.991,5.991V106.27z"/>
<path fill="#FFFFFF" d="M75.399,23.431c-15.442,0-27.959,12.931-27.959,28.881c0,1.986-0.344,3.924,0.025,5.797h8.88
	c-0.123-0.944-0.111-1.909-0.191-2.886c-0.877-10.613,9.111-22.626,20.056-22.626c12.013,0,19.294,9.829,19.579,22.626
	c0.022,0.979-0.068,1.942-0.191,2.886h7.736c0.369-1.873,0.025-3.812,0.025-5.797C103.359,36.362,90.841,23.431,75.399,23.431z"/>
</svg>
